…
``` r
# ggplot2:: #--------------------
df <- as.data.frame(dset, xy = TRUE) 
tibble(df)
```

    ## # A tibble: 460 × 3
    ##        x     y X2.metre.temperature
    ##    <dbl> <dbl>                <dbl>
    ##  1 -78.7  38.5                 288.
    ##  2 -78.6  38.5                 287.
    ##  3 -78.5  38.5                 287.
    ##  4 -78.4  38.5                 287.
    ##  5 -78.3  38.5                 288.
    ##  6 -78.2  38.5                 289.
    ##  7 -78.1  38.5                 289.
    ##  8 -78.0  38.5                 289.
    ##  9 -77.9  38.5                 289.
    ## 10 -77.8  38.5                 289.
    ## # ℹ 450 more rows

``` r
(df1 <- df %>% 
        tibble() %>% 
        mutate(tempC = weathermetrics::kelvin.to.celsius(X2.metre.temperature)))
```

    ## # A tibble: 460 × 4
    ##        x     y X2.metre.temperature tempC
    ##    <dbl> <dbl>                <dbl> <dbl>
    ##  1 -78.7  38.5                 288.  14.5
    ##  2 -78.6  38.5                 287.  14.1
    ##  3 -78.5  38.5                 287.  13.6
    ##  4 -78.4  38.5                 287.  14.0
    ##  5 -78.3  38.5                 288.  15.1
    ##  6 -78.2  38.5                 289.  15.7
    ##  7 -78.1  38.5                 289.  16.0
    ##  8 -78.0  38.5                 289.  15.8
    ##  9 -77.9  38.5                 289.  15.6
    ## 10 -77.8  38.5                 289.  15.6
    ## # ℹ 450 more rows
…
