…
    ## [1] "reanalysis-era5-land-monthly-means" "reanalysis-era5-land"              
    ## [3] "reanalysis-era5-single-levels"

``` r
# available variables
(df_vars <- KrigR::Meta.Variables("reanalysis-era5-land-monthly-means") %>% 
        tibble())
```

    ## # A tibble: 59 × 5
    ##    Variable                                          CDSname Description Unit  Cumulative
    ##    <chr>                                             <chr>   <chr>       <chr> <lgl>     
    ##  1 2m temperature                                    2m_tem… Temperatur… K     FALSE     
    ##  2 Total precipitation                               total_… Accumulate… m     TRUE      
    ##  3 10m u-component of wind                           10m_u_… Eastward c… m s-1 FALSE     
    ##  4 10m v-component of wind                           10m_v_… Northward … m s-1 FALSE     
    ##  5 2m dewpoint temperature                           2m_dew… Temperatur… K     FALSE     
    ##  6 Evaporation from bare soil                        evapor… The amount… m of… TRUE      
    ##  7 Evaporation from open water surfaces excluding o… evapor… Amount of … m of… TRUE      
    ##  8 Evaporation from the top of canopy                evapor… The amount… m of… TRUE      
    ##  9 Evaporation from vegetation transpiration         evapor… Amount of … m of… TRUE      
    ## 10 Forecast albedo                                   foreca… Is a measu… dime… FALSE     
    ## # ℹ 49 more rows
…
``` r
# raster to dataframe
(july_temp_df <- as.data.frame(july_temp,
                              xy = TRUE,
                              na.rm = TRUE) %>% 
    tibble())
```

    ## # A tibble: 577,043 × 6
    ##        x     y `2016` `2017` `2018` `2019`
    ##    <dbl> <dbl>  <dbl>  <dbl>  <dbl>  <dbl>
    ##  1  149.  45.6   284.   284.   282.   284.
    ##  2  149.  45.6   284.   284.   282.   284.
    ##  3  149.  45.6   284.   284.   282.   284.
    ##  4  149.  45.6   284.   284.   282.   284.
    ##  5  149.  45.6   284.   284.   282.   284.
    ##  6  149.  45.6   284.   284.   282.   284.
    ##  7  149.  45.6   284.   284.   282.   284.
    ##  8  149.  45.6   284.   284.   282.   284.
    ##  9  149.  45.6   284.   284.   282.   284.
    ## 10  149.  45.6   284.   284.   282.   284.
    ## # ℹ 577,033 more rows

``` r
(july_temp_long <- tibble(july_temp_df) %>% 
    pivot_longer(cols = c(-x, -y),
                 names_to = "year",
                 values_to = "tempK") %>% 
    mutate(year = as.integer(year),
           tempC = weathermetrics::kelvin.to.celsius(tempK)))
```

    ## # A tibble: 2,308,172 × 5
    ##        x     y  year tempK tempC
    ##    <dbl> <dbl> <int> <dbl> <dbl>
    ##  1  149.  45.6  2016  284. 10.7 
    ##  2  149.  45.6  2017  284. 10.8 
    ##  3  149.  45.6  2018  282.  8.88
    ##  4  149.  45.6  2019  284. 10.9 
    ##  5  149.  45.6  2016  284. 10.7 
    ##  6  149.  45.6  2017  284. 10.8 
    ##  7  149.  45.6  2018  282.  8.85
    ##  8  149.  45.6  2019  284. 10.8 
    ##  9  149.  45.6  2016  284. 10.6 
    ## 10  149.  45.6  2017  284. 10.7 
    ## # ℹ 2,308,162 more rows
…
