…
    ## Simple feature collection with 1 feature and 6 fields
    ## Geometry type: MULTIPOLYGON
    ## Dimension:     XY
    ## Bounding box:  xmin: -83.6754 ymin: 36.54075 xmax: -75.24227 ymax: 39.46602
    ## Geodetic CRS:  WGS 84
    ##   shapeGroup shapeType shapeName shapeISO                 shapeID shapeCanonical                       geometry
    ## 1        USA      ADM1  Virginia    US-VA 66186276B53580985925186         States MULTIPOLYGON (((-75.74241 3...

``` r
# US counties
(us_counties_sf <- gb_adm2("United States") %>% tibble())
```

    ## # A tibble: 3,233 × 7
    ##    shapeGroup shapeType shapeName  shapeISO shapeID                 shapeCanonical                                     geometry
    ##    <chr>      <chr>     <chr>      <chr>    <chr>                   <chr>                                    <MULTIPOLYGON [°]>
    ##  1 USA        ADM2      Highland   <NA>     52423323B51867153498623 Counties       (((-83.86568 39.24734, -83.83441 39.24572, …
    ##  2 USA        ADM2      Alpine     <NA>     52423323B67588574079428 Counties       (((-120.0725 38.50987, -120.0724 38.70277, …
    ##  3 USA        ADM2      Escambia   <NA>     52423323B97123089850170 Counties       (((-87.59883 30.99743, -87.5713 30.99784, -…
    ##  4 USA        ADM2      Lawrence   <NA>     52423323B54167037237770 Counties       (((-87.90812 38.85011, -87.7596 38.84952, -…
    ##  5 USA        ADM2      Wayne      <NA>     52423323B18579387327768 Counties       (((-88.94336 31.82457, -88.91046 31.82665, …
    ##  6 USA        ADM2      Tishomingo <NA>     52423323B71362276548625 Counties       (((-88.36354 34.9956, -88.25812 34.99547, -…
    ##  7 USA        ADM2      Sanders    <NA>     52423323B19966710463863 Counties       (((-116.0497 48.21612, -116.0167 48.20622, …
    ##  8 USA        ADM2      Albany     <NA>     52423323B67077901806593 Counties       (((-74.18028 42.72999, -74.1065 42.73924, -…
    ##  9 USA        ADM2      Potter     <NA>     52423323B68632918387185 Counties       (((-78.20661 41.99963, -78.12473 42.00046, …
    ## 10 USA        ADM2      Greene     <NA>     52423323B68605261841500 Counties       (((-93.62116 37.42743, -93.43724 37.42356, …
    ## # ℹ 3,223 more rows
…
## Reshape raster to dataframe

``` r
# reshape raster to dataframe #------------------------
df_va <- as.data.frame(temp_krigged,
                        xy = TRUE,
                        time = TRUE,
                        na.rm = TRUE)

tibble(df_va)
```

    ## # A tibble: 156,048 × 98
    ##        x     y `2016-01-01 05:00:00` `2016-01-01 06:00:00` `2016-01-01 07:00:00` `2016-01-01 08:00:00` `2016-01-01 09:00:00`
    ##    <dbl> <dbl>                 <dbl>                 <dbl>                 <dbl>                 <dbl>                 <dbl>
    ##  1 -78.3  39.5                  275.                  274.                  274.                  274.                  274.
    ##  2 -78.3  39.5                  275.                  274.                  275.                  275.                  274.
    ##  3 -78.3  39.5                  274.                  274.                  274.                  274.                  274.
    ##  4 -78.3  39.5                  275.                  274.                  275.                  274.                  274.
    ##  5 -78.3  39.5                  275.                  275.                  275.                  275.                  275.
    ##  6 -78.3  39.5                  276.                  275.                  275.                  275.                  275.
    ##  7 -78.3  39.4                  274.                  274.                  274.                  274.                  274.
    ##  8 -78.3  39.4                  275.                  274.                  275.                  274.                  274.
    ##  9 -78.3  39.4                  275.                  275.                  275.                  275.                  275.
    ## 10 -78.3  39.4                  276.                  275.                  275.                  275.                  275.
    ## # ℹ 156,038 more rows
    ## # ℹ 91 more variables: `2016-01-01 10:00:00` <dbl>, `2016-01-01 11:00:00` <dbl>, `2016-01-01 12:00:00` <dbl>,
    ## #   `2016-01-01 13:00:00` <dbl>, `2016-01-01 14:00:00` <dbl>, `2016-01-01 15:00:00` <dbl>, `2016-01-01 16:00:00` <dbl>,
    ## #   `2016-01-01 17:00:00` <dbl>, `2016-01-01 18:00:00` <dbl>, `2016-01-01 19:00:00` <dbl>, `2016-01-01 20:00:00` <dbl>,
    ## #   `2016-01-01 21:00:00` <dbl>, `2016-01-01 22:00:00` <dbl>, `2016-01-01 23:00:00` <dbl>, `2016-01-02` <dbl>,
    ## #   `2016-01-02 01:00:00` <dbl>, `2016-01-02 02:00:00` <dbl>, `2016-01-02 03:00:00` <dbl>, `2016-01-02 04:00:00` <dbl>,
    ## #   `2016-01-02 05:00:00` <dbl>, `2016-01-02 06:00:00` <dbl>, `2016-01-02 07:00:00` <dbl>, `2016-01-02 08:00:00` <dbl>, …
…
    ## Warning: There was 1 warning in `mutate()`.
    ## ℹ In argument: `timeET = ymd_hms(timestamp, tz = "UTC") %>% with_tz(., "US/Eastern")`.
    ## Caused by warning:
    ## !  624192 failed to parse.

    ## # A tibble: 14,980,608 × 7
    ##        x     y timestamp           tempK tempC timeET              date      
    ##    <dbl> <dbl> <chr>               <dbl> <dbl> <dttm>              <date>    
    ##  1 -78.3  39.5 2016-01-01 05:00:00  275.  1.43 2016-01-01 00:00:00 2016-01-01
    ##  2 -78.3  39.5 2016-01-01 06:00:00  274.  0.97 2016-01-01 01:00:00 2016-01-01
    ##  3 -78.3  39.5 2016-01-01 07:00:00  274.  1.21 2016-01-01 02:00:00 2016-01-01
    ##  4 -78.3  39.5 2016-01-01 08:00:00  274.  1.14 2016-01-01 03:00:00 2016-01-01
    ##  5 -78.3  39.5 2016-01-01 09:00:00  274.  0.94 2016-01-01 04:00:00 2016-01-01
    ##  6 -78.3  39.5 2016-01-01 10:00:00  274.  0.59 2016-01-01 05:00:00 2016-01-01
    ##  7 -78.3  39.5 2016-01-01 11:00:00  274.  0.36 2016-01-01 06:00:00 2016-01-01
    ##  8 -78.3  39.5 2016-01-01 12:00:00  273.  0.15 2016-01-01 07:00:00 2016-01-01
    ##  9 -78.3  39.5 2016-01-01 13:00:00  273. -0.03 2016-01-01 08:00:00 2016-01-01
    ## 10 -78.3  39.5 2016-01-01 14:00:00  273.  0.33 2016-01-01 09:00:00 2016-01-01
    ## # ℹ 14,980,598 more rows
…
