…
``` r
# vector of `temp` values
temp_vec <- as.vector(temp_slice)
length(temp_vec)
```

    ## [1] 2550

``` r
temp_df01 <- data.frame(cbind(lonlat, temp_vec))
tibble(temp_df01)
```

    ## # A tibble: 2,550 × 3
    ##     Var1  Var2 temp_vec
    ##    <dbl> <dbl>    <dbl>
    ##  1 -83.7  39.4       NA
    ##  2 -83.6  39.4       NA
    ##  3 -83.5  39.4       NA
    ##  4 -83.4  39.4       NA
    ##  5 -83.3  39.4       NA
    ##  6 -83.2  39.4       NA
    ##  7 -83.1  39.4       NA
    ##  8 -83.0  39.4       NA
    ##  9 -82.9  39.4       NA
    ## 10 -82.8  39.4       NA
    ## # ℹ 2,540 more rows
…
``` r
# create a dataframe
lonlat <- as.matrix(expand.grid(lon,lat))
temp_df02 <- data.frame(cbind(lonlat,temp_matrix))
tibble(temp_df02)
```

    ## # A tibble: 2,550 × 98
    ##     Var1  Var2    V3    V4    V5    V6    V7    V8    V9   V10   V11   V12   V13   V14
    ##    <dbl> <dbl> <dbl> <dbl> <dbl> <dbl> <dbl> <dbl> <dbl> <dbl> <dbl> <dbl> <dbl> <dbl>
    ##  1 -83.7  39.4    NA    NA    NA    NA    NA    NA    NA    NA    NA    NA    NA    NA
    ##  2 -83.6  39.4    NA    NA    NA    NA    NA    NA    NA    NA    NA    NA    NA    NA
    ##  3 -83.5  39.4    NA    NA    NA    NA    NA    NA    NA    NA    NA    NA    NA    NA
    ##  4 -83.4  39.4    NA    NA    NA    NA    NA    NA    NA    NA    NA    NA    NA    NA
    ##  5 -83.3  39.4    NA    NA    NA    NA    NA    NA    NA    NA    NA    NA    NA    NA
    ##  6 -83.2  39.4    NA    NA    NA    NA    NA    NA    NA    NA    NA    NA    NA    NA
    ##  7 -83.1  39.4    NA    NA    NA    NA    NA    NA    NA    NA    NA    NA    NA    NA
    ##  8 -83.0  39.4    NA    NA    NA    NA    NA    NA    NA    NA    NA    NA    NA    NA
    ##  9 -82.9  39.4    NA    NA    NA    NA    NA    NA    NA    NA    NA    NA    NA    NA
    ## 10 -82.8  39.4    NA    NA    NA    NA    NA    NA    NA    NA    NA    NA    NA    NA
    ## # ℹ 2,540 more rows
    ## # ℹ 84 more variables: V15 <dbl>, V16 <dbl>, V17 <dbl>, V18 <dbl>, V19 <dbl>, V20 <dbl>,
    ## #   V21 <dbl>, V22 <dbl>, V23 <dbl>, V24 <dbl>, V25 <dbl>, V26 <dbl>, V27 <dbl>,
    ## #   V28 <dbl>, V29 <dbl>, V30 <dbl>, V31 <dbl>, V32 <dbl>, V33 <dbl>, V34 <dbl>,
    ## #   V35 <dbl>, V36 <dbl>, V37 <dbl>, V38 <dbl>, V39 <dbl>, V40 <dbl>, V41 <dbl>,
    ## #   V42 <dbl>, V43 <dbl>, V44 <dbl>, V45 <dbl>, V46 <dbl>, V47 <dbl>, V48 <dbl>,
    ## #   V49 <dbl>, V50 <dbl>, V51 <dbl>, V52 <dbl>, V53 <dbl>, V54 <dbl>, V55 <dbl>, …
…
